%YAML 1.1
%TAG !u! tag:unity3d.com,2011:
--- !u!1045 &1
EditorBuildSettings:
  m_ObjectHideFlags: 0
  serializedVersion: 2
  m_Scenes:
  - enabled: 0
    path: 
    guid: 00000000000000000000000000000000
  - enabled: 0
    path: 
    guid: 00000000000000000000000000000000
  - enabled: 0
    path: 
    guid: 00000000000000000000000000000000
  - enabled: 0
    path: 
    guid: 00000000000000000000000000000000
  - enabled: 1
    path: Assets/Scenes/Start.unity
    guid: 2bb201e12af8d0a40ac26ff4fd04675a
  - enabled: 1
    path: Assets/Scenes/Cemetery.unity
    guid: ba86ba42983a35d45a67598c2a306bd2
  m_configObjects: {}
